21:10:52.356 [main] INFO  selenium.utils.Log - Started the suite with Chrome browser
21:10:54.865 [main] INFO  selenium.utils.Log - Open the https://keybooks.ro/ 
21:10:54.892 [main] INFO  selenium.utils.Log - +++++++++++++++++++++++++++++++++++++++++++++++++++++++++++++++++
21:10:54.893 [main] INFO  selenium.utils.Log - +++++++++++++++++++ Start method : loginTest++++++++++++++++++++++++
21:10:54.897 [main] INFO  selenium.utils.Log - +++++++++++++++++++Start time :2021.11.02.21.10.54++++++++++++++++++++++++
21:10:55.040 [main] INFO  selenium.utils.Log - navigated to login
21:10:55.808 [main] INFO  selenium.utils.Log - try to login with username TestUser and password 12345@67890
21:11:01.107 [main] INFO  selenium.utils.Log - verify logout button is present
21:11:02.902 [main] INFO  selenium.utils.Log - click on logout button
21:11:02.910 [main] INFO  selenium.utils.Log - +++++++++++++++++++++++++++++++++++++++++++++++++++++++++++++++++
21:11:02.910 [main] INFO  selenium.utils.Log - +++++++++++++++++++ End method : loginTest++++++++++++++++++++++++
21:11:02.911 [main] INFO  selenium.utils.Log - +++++++++++++++++++End time :2021.11.02.21.11.02++++++++++++++++++++++++
21:11:02.917 [main] INFO  selenium.utils.Log - +++++++++++++++++++++++++++++++++++++++++++++++++++++++++++++++++
21:11:02.918 [main] INFO  selenium.utils.Log - +++++++++++++++++++ Start method : loginTest++++++++++++++++++++++++
21:11:02.922 [main] INFO  selenium.utils.Log - +++++++++++++++++++Start time :2021.11.02.21.11.02++++++++++++++++++++++++
21:11:03.095 [main] INFO  selenium.utils.Log - navigated to login
21:11:03.840 [main] INFO  selenium.utils.Log - try to login with username test.test and password test.test@123
21:11:08.885 [main] INFO  selenium.utils.Log - verify logout button is present
21:11:10.552 [main] INFO  selenium.utils.Log - click on logout button
21:11:10.552 [main] INFO  selenium.utils.Log - +++++++++++++++++++++++++++++++++++++++++++++++++++++++++++++++++
21:11:10.553 [main] INFO  selenium.utils.Log - +++++++++++++++++++ End method : loginTest++++++++++++++++++++++++
21:11:10.554 [main] INFO  selenium.utils.Log - +++++++++++++++++++End time :2021.11.02.21.11.10++++++++++++++++++++++++
21:11:10.559 [main] INFO  selenium.utils.Log - +++++++++++++++++++++++++++++++++++++++++++++++++++++++++++++++++
21:11:10.559 [main] INFO  selenium.utils.Log - +++++++++++++++++++ Start method : loginTest++++++++++++++++++++++++
21:11:10.563 [main] INFO  selenium.utils.Log - +++++++++++++++++++Start time :2021.11.02.21.11.10++++++++++++++++++++++++
21:11:10.770 [main] INFO  selenium.utils.Log - navigated to login
21:11:11.439 [main] INFO  selenium.utils.Log - try to login with username test.test and password test.test@123
21:11:16.389 [main] INFO  selenium.utils.Log - verify logout button is present
21:11:18.434 [main] INFO  selenium.utils.Log - click on logout button
21:11:18.435 [main] INFO  selenium.utils.Log - +++++++++++++++++++++++++++++++++++++++++++++++++++++++++++++++++
21:11:18.435 [main] INFO  selenium.utils.Log - +++++++++++++++++++ End method : loginTest++++++++++++++++++++++++
21:11:18.436 [main] INFO  selenium.utils.Log - +++++++++++++++++++End time :2021.11.02.21.11.18++++++++++++++++++++++++
21:11:18.440 [main] INFO  selenium.utils.Log - +++++++++++++++++++++++++++++++++++++++++++++++++++++++++++++++++
21:11:18.441 [main] INFO  selenium.utils.Log - +++++++++++++++++++ Start method : loginTest++++++++++++++++++++++++
21:11:18.442 [main] INFO  selenium.utils.Log - +++++++++++++++++++Start time :2021.11.02.21.11.18++++++++++++++++++++++++
21:11:18.651 [main] INFO  selenium.utils.Log - navigated to login
21:11:19.522 [main] INFO  selenium.utils.Log - try to login with username test.test and password test.test@12
21:11:29.592 [main] ERROR selenium.utils.Log - +++++++++++++++++++++++++++++++++++++++++++++++++++++++++++++++++
21:11:29.592 [main] ERROR selenium.utils.Log - +++++++++++++++++++ Failure: loginTest++++++++++++++++++++++++
21:11:29.593 [main] ERROR selenium.utils.Log - +++++++++++++++++++Fail time :2021.11.02.21.11.29++++++++++++++++++++++++
